{
    "mqtt_config" : "config/mqtt-aio-config.py",
    "actions" : [
        {
        "topic" : "rhoover/feeds/remote-signal",
        "value" : "ssh",
        "command" : ["WORKINGDIR/tools/ssh-tunnel"]
        }
    ]
} 
